Quarto do Marcel - 30 days chart challenge - day 02
…
data %>%
  group_by(Nation) %>%
  count(sort = TRUE) %>%
  mutate(prop = 100*n/nrow(data))

# A tibble: 105 x 3
# Groups:   Nation [105]
   Nation     n  prop
   <chr>  <int> <dbl>
 1 ESP      385 13.9 
 2 FRA      377 13.6 
 3 GER      231  8.34
 4 ITA      220  7.95
 5 ENG      188  6.79
 6 BRA      106  3.83
 7 ARG       77  2.78
 8 POR       72  2.60
 9 NED       70  2.53
10 BEL       48  1.73
# ... with 95 more rows
…
