Quarto do Marcel - 30 days chart challenge - day 11
…
df %>%
  mutate(genres = factor(genres)) %>%
  mutate(genres = fct_lump_min(genres,10,other_level = "other")) %>%
  group_by(genres, decade) %>%
  count(sort = TRUE)

# A tibble: 340 x 3
# Groups:   genres, decade [340]
   genres          decade     n
   <fct>            <dbl> <int>
 1 "documentation"   2020   212
 2 "drama"           2020   153
 3 "documentation"   2030   125
 4 " drama"          2020   117
 5 "comedy"          2020   107
 6 "comedy"          2010   104
 7 "drama"           2010   100
 8 " thriller"       2020    99
 9 " action"         2020    96
10 "drama"           2000    86
# ... with 330 more rows
…
