Quarto do Marcel - 30 days chart challenge - day 01
…
$APPEARANCES
[1] 359

$`FIRST APPEARANCE`
[1] 833

$Year
[1] 76

data %>% 
  group_by(HAIR) %>%
  count(sort = TRUE) %>%
  mutate(prop = 100*n/nrow(data))

# A tibble: 26 x 3
# Groups:   HAIR [26]
   HAIR           n   prop
   <chr>      <int>  <dbl>
 1 <NA>        4264 26.0  
 2 Black Hair  3755 22.9  
 3 Brown Hair  2339 14.3  
 4 Blond Hair  1582  9.66 
 5 No Hair     1176  7.18 
 6 Bald         838  5.12 
 7 White Hair   754  4.60 
 8 Red Hair     620  3.79 
 9 Grey Hair    531  3.24 
10 Green Hair   117  0.714
# ... with 16 more rows

data %>% 
    group_by(EYE) %>%
  count(sort = TRUE) %>%
  mutate(prop = 100*n/nrow(data))

# A tibble: 25 x 3
# Groups:   EYE [25]
   EYE             n   prop
   <chr>       <int>  <dbl>
 1 <NA>         9767 59.6  
 2 Blue Eyes    1962 12.0  
 3 Brown Eyes   1924 11.7  
 4 Green Eyes    613  3.74 
 5 Black Eyes    555  3.39 
 6 Red Eyes      508  3.10 
 7 White Eyes    400  2.44 
 8 Yellow Eyes   256  1.56 
 9 Grey Eyes      95  0.580
10 Hazel Eyes     76  0.464
# ... with 15 more rows

(df_ex <- data %>%
  slice_sample(n = 20) %>%
    mutate(across(where(is.character),.f = \(x) replace_na(x,"No Info"))) %>%
  make_long("ID","SEX","EYE","HAIR","ALIGN","ALIVE"))

# A tibble: 120 x 4
   x     node               next_x next_node         
   <fct> <chr>              <fct>  <chr>             
 1 ID    Public Identity    SEX    Female Characters 
 2 SEX   Female Characters  EYE    No Info           
 3 EYE   No Info            HAIR   Black Hair        
 4 HAIR  Black Hair         ALIGN  Neutral Characters
 5 ALIGN Neutral Characters ALIVE  Living Characters 
 6 ALIVE Living Characters  <NA>   <NA>              
 7 ID    No Info            SEX    Male Characters   
 8 SEX   Male Characters    EYE    No Info           
 9 EYE   No Info            HAIR   No Info           
10 HAIR  No Info            ALIGN  Bad Characters    
# ... with 110 more rows
…
