Quarto do Marcel - 30 days chart challenge - day 03
…
data %>%
  group_by(Borough) %>%
  count(AnimalName,sort = TRUE)

# A tibble: 28,872 x 3
# Groups:   Borough [5]
   Borough   AnimalName            n
   <chr>     <chr>             <int>
 1 Brooklyn  UNKNOWN             944
 2 Manhattan UNKNOWN             944
 3 Queens    NAME NOT PROVIDED   649
 4 Brooklyn  NAME NOT PROVIDED   462
 5 Manhattan CHARLIE             390
 6 Manhattan LUCY                358
 7 Manhattan LOLA                346
 8 Queens    UNKNOWN             338
 9 Manhattan NAME NOT PROVIDED   334
10 Queens    MAX                 334
# ... with 28,862 more rows
…
