Quarto do Marcel - Using Rvest and Tidyverse to scrape the samples names from 1000 genomes
…
I used the functions read_html() and html_node(), with the argument "table",to extract as a table the sample structure information on the site.

mil_genomes <- "http://ftp.1000genomes.ebi.ac.uk/vol1/ftp/data_collections/HGSVC3/working/20211013_ONT_Rebasecalled/"

webpage <- read_html(mil_genomes)

tbls <- html_nodes(webpage, "table")

The tbls object is a R list, then it is necessary to extract the first element of the list to follow the analysis. The function html_table() return a tibble object containing the sample table.

tbls[[1]] %>% 
  html_table()

# A tibble: 47 x 5
   ``    Name               `Last modified`    Size  Description
   <lgl> <chr>              <chr>              <chr> <lgl>      
 1 NA    ""                 ""                 ""    NA         
 2 NA    "Parent Directory" ""                 "-"   NA         
 3 NA    "HG00096/"         "2023-07-24 15:42" "-"   NA         
 4 NA    "HG00268/"         "2022-05-31 09:55" "-"   NA         
 5 NA    "HG00358/"         "2022-11-07 10:42" "-"   NA         
 6 NA    "HG00512/"         "2022-06-01 14:56" "-"   NA         
 7 NA    "HG00731/"         "2022-06-01 15:16" "-"   NA         
 8 NA    "HG00733/"         "2022-11-07 10:36" "-"   NA         
 9 NA    "HG01457/"         "2022-05-31 09:54" "-"   NA         
10 NA    "HG01505/"         "2022-06-01 15:24" "-"   NA         
# ... with 37 more rows
…
samples_names <- samples_names %>% 
  group_by(Name_sample) %>% 
  nest() %>% 
  mutate(filenames = map(data, fn_get_filnames)) %>% 
  unnest(data,filenames)

Warning: `unnest()` has a new interface. See `?unnest` for details.
i Try `df %>% unnest(c(data, filenames))`, with `mutate()` if needed.

And in the end we had our table!

samples_names

# A tibble: 108 x 4
# Groups:   Name_sample [36]
   Name_sample Name_dir Filename                                           Size 
   <chr>       <chr>    <chr>                                              <chr>
 1 HG00096     HG00096/ 20220405_220329_21-lee-006_PC24B149_3D_guppy-5.0.~ 30G  
 2 HG00096     HG00096/ 20220408_220405_21-lee-006_PC24B149_2D_guppy-5.0.~ 25G  
 3 HG00096     HG00096/ 20220412_220407_21-lee-006_PC24B149_2D_guppy-5.0.~ 3.6G 
 4 HG00096     HG00096/ 20230418_230412_23-lee-007_PC24B149_2C_guppy-5.0.~ 63G  
 5 HG00268     HG00268/ 20210903_210825_21-lee-006_PCT0053_2-A1-D1_guppy-~ 69G  
 6 HG00268     HG00268/ 20210913_210831_21-lee-006_PCT0053_2-A1-D1_guppy-~ 55G  
 7 HG00358     HG00358/ 20220211_220202_21-lee-006_PC24B149_1F_guppy-5.0.~ 54G  
 8 HG00358     HG00358/ 20220215_220209_21-lee-006_PC24B149_2E_guppy-5.0.~ 26G  
 9 HG00358     HG00358/ 20220315_220308_21-lee-006_PC24B149_3D_guppy-5.0.~ 55G  
10 HG00512     HG00512/ 20220425_220420_21-lee-006_PC24B149_3F_guppy-5.0.~ 55G  
# ... with 98 more rows
…
